{
  "linux": "https://s3.us-east-1.amazonaws.com/cloudchainsinc.com/downloads/cc-release-0.5.14-linux.zip",
  "mac": "https://s3.us-east-1.amazonaws.com/cloudchainsinc.com/downloads/cc-release-0.5.14-osx.zip",
  "win": "https://s3.us-east-1.amazonaws.com/cloudchainsinc.com/downloads/cc-release-0.5.14-windows.zip"
}
